%!PS-Adobe-3.0
%%Creator: graphviz version 2.30.1 (20130214.1330)
%%Title: rolls
%%Pages: (atend)
%%BoundingBox: (atend)
%%EndComments
save
%%BeginProlog
/DotDict 200 dict def
DotDict begin

/setupLatin1 {
mark
/EncodingVector 256 array def
 EncodingVector 0

ISOLatin1Encoding 0 255 getinterval putinterval
EncodingVector 45 /hyphen put

% Set up ISO Latin 1 character encoding
/starnetISO {
        dup dup findfont dup length dict begin
        { 1 index /FID ne { def }{ pop pop } ifelse
        } forall
        /Encoding EncodingVector def
        currentdict end definefont
} def
/Times-Roman starnetISO def
/Times-Italic starnetISO def
/Times-Bold starnetISO def
/Times-BoldItalic starnetISO def
/Helvetica starnetISO def
/Helvetica-Oblique starnetISO def
/Helvetica-Bold starnetISO def
/Helvetica-BoldOblique starnetISO def
/Courier starnetISO def
/Courier-Oblique starnetISO def
/Courier-Bold starnetISO def
/Courier-BoldOblique starnetISO def
cleartomark
} bind def

%%BeginResource: procset graphviz 0 0
/coord-font-family /Times-Roman def
/default-font-family /Times-Roman def
/coordfont coord-font-family findfont 8 scalefont def

/InvScaleFactor 1.0 def
/set_scale {
       dup 1 exch div /InvScaleFactor exch def
       scale
} bind def

% styles
/solid { [] 0 setdash } bind def
/dashed { [9 InvScaleFactor mul dup ] 0 setdash } bind def
/dotted { [1 InvScaleFactor mul 6 InvScaleFactor mul] 0 setdash } bind def
/invis {/fill {newpath} def /stroke {newpath} def /show {pop newpath} def} bind def
/bold { 2 setlinewidth } bind def
/filled { } bind def
/unfilled { } bind def
/rounded { } bind def
/diagonals { } bind def
/tapered { } bind def

% hooks for setting color 
/nodecolor { sethsbcolor } bind def
/edgecolor { sethsbcolor } bind def
/graphcolor { sethsbcolor } bind def
/nopcolor {pop pop pop} bind def

/beginpage {	% i j npages
	/npages exch def
	/j exch def
	/i exch def
	/str 10 string def
	npages 1 gt {
		gsave
			coordfont setfont
			0 0 moveto
			(\() show i str cvs show (,) show j str cvs show (\)) show
		grestore
	} if
} bind def

/set_font {
	findfont exch
	scalefont setfont
} def

% draw text fitted to its expected width
/alignedtext {			% width text
	/text exch def
	/width exch def
	gsave
		width 0 gt {
			[] 0 setdash
			text stringwidth pop width exch sub text length div 0 text ashow
		} if
	grestore
} def

/boxprim {				% xcorner ycorner xsize ysize
		4 2 roll
		moveto
		2 copy
		exch 0 rlineto
		0 exch rlineto
		pop neg 0 rlineto
		closepath
} bind def

/ellipse_path {
	/ry exch def
	/rx exch def
	/y exch def
	/x exch def
	matrix currentmatrix
	newpath
	x y translate
	rx ry scale
	0 0 1 0 360 arc
	setmatrix
} bind def

/endpage { showpage } bind def
/showpage { } def

/layercolorseq
	[	% layer color sequence - darkest to lightest
		[0 0 0]
		[.2 .8 .8]
		[.4 .8 .8]
		[.6 .8 .8]
		[.8 .8 .8]
	]
def

/layerlen layercolorseq length def

/setlayer {/maxlayer exch def /curlayer exch def
	layercolorseq curlayer 1 sub layerlen mod get
	aload pop sethsbcolor
	/nodecolor {nopcolor} def
	/edgecolor {nopcolor} def
	/graphcolor {nopcolor} def
} bind def

/onlayer { curlayer ne {invis} if } def

/onlayers {
	/myupper exch def
	/mylower exch def
	curlayer mylower lt
	curlayer myupper gt
	or
	{invis} if
} def

/curlayer 0 def

%%EndResource
%%EndProlog
%%BeginSetup
14 default-font-family set_font
1 setmiterlimit
% /arrowlength 10 def
% /arrowwidth 5 def

% make sure pdfmark is harmless for PS-interpreters other than Distiller
/pdfmark where {pop} {userdict /pdfmark /cleartomark load put} ifelse
% make '<<' and '>>' safe on PS Level 1 devices
/languagelevel where {pop languagelevel}{1} ifelse
2 lt {
    userdict (<<) cvn ([) cvn load put
    userdict (>>) cvn ([) cvn load put
} if

%%EndSetup
setupLatin1
%%Page: 1 1
%%PageBoundingBox: 36 36 804 1009
%%PageOrientation: Portrait
0 0 1 beginpage
gsave
36 36 768 973 boxprim clip newpath
1 1 set_scale 0 rotate 40 41 translate
% clustermain
gsave
1 setlinewidth
0 0 0 graphcolor
newpath 24 538 moveto
24 957 lineto
752 957 lineto
752 538 lineto
closepath stroke
0 0 0 graphcolor
32 /Times-Roman set_font
300.5 927.4 moveto 175 (Profile Graph) alignedtext
grestore
% clusterkey
gsave
1 setlinewidth
0 0 0 graphcolor
newpath 8 8 moveto
8 211 lineto
110 211 lineto
110 8 lineto
closepath stroke
0 0 0 graphcolor
32 /Times-Roman set_font
24.5 181.4 moveto 69 (Rolls) alignedtext
grestore
% clusterorder
gsave
1 setlinewidth
0 0 0 graphcolor
newpath 12 219 moveto
12 530 lineto
306 530 lineto
306 219 lineto
closepath stroke
0 0 0 graphcolor
32 /Times-Roman set_font
24.5 500.4 moveto 269 (Ordering Constraints) alignedtext
grestore
% roll-earth-sensor
gsave
0.8 0.59608 0.82745 nodecolor
newpath 101.5 160 moveto
16.5 160 lineto
16.5 124 lineto
101.5 124 lineto
closepath fill
1 setlinewidth
filled
0 0 0 nodecolor
newpath 101.5 160 moveto
16.5 160 lineto
16.5 124 lineto
101.5 124 lineto
closepath stroke
0 0 0 nodecolor
14 /Times-Roman set_font
24.5 138.3 moveto 69 (earth-sensor) alignedtext
grestore
% roll-base
gsave
0.33333 1 1 nodecolor
newpath 86 106 moveto
32 106 lineto
32 70 lineto
86 70 lineto
closepath fill
1 setlinewidth
filled
0 0 0 nodecolor
newpath 86 106 moveto
32 106 lineto
32 70 lineto
86 70 lineto
closepath stroke
0 0 0 nodecolor
14 /Times-Roman set_font
46 84.3 moveto 26 (base) alignedtext
grestore
% roll-root
gsave
0.83137 0.27451 0.86667 nodecolor
newpath 86 52 moveto
32 52 lineto
32 16 lineto
86 16 lineto
closepath fill
1 setlinewidth
filled
0 0 0 nodecolor
newpath 86 52 moveto
32 52 lineto
32 16 lineto
86 16 lineto
closepath stroke
0 0 0 nodecolor
14 /Times-Roman set_font
47 30.3 moveto 24 (root) alignedtext
grestore
% order-wifi-settings
gsave
0.33333 1 1 nodecolor
218 245 53.89 18 ellipse_path fill
1 setlinewidth
filled
0 0 0 nodecolor
218 245 53.89 18 ellipse_path stroke
0 0 0 nodecolor
14 /Times-Roman set_font
184.5 241.3 moveto 67 (wifi-settings) alignedtext
grestore
% order-p3
gsave
0.33333 1 1 nodecolor
59 353 27 18 ellipse_path fill
1 setlinewidth
filled
0 0 0 nodecolor
59 353 27 18 ellipse_path stroke
0 0 0 nodecolor
14 /Times-Roman set_font
51.5 349.3 moveto 15 (p3) alignedtext
grestore
% order-p3->order-wifi-settings
gsave
2 setlinewidth
bold
0.33333 1 1 edgecolor
newpath 82.81 344.22 moveto
92.09 339.81 102.39 333.74 110 326 curveto
128.96 306.72 117.51 289.64 138 272 curveto
143.68 267.11 150.29 263.09 157.23 259.79 curveto
stroke
0.33333 1 1 edgecolor
newpath 159.3 264.62 moveto
171.25 254.15 lineto
155.38 254.88 lineto
closepath fill
1 setlinewidth
solid
0.33333 1 1 edgecolor
newpath 159.3 264.62 moveto
171.25 254.15 lineto
155.38 254.88 lineto
closepath stroke
grestore
% order-sensor-rocks-client
gsave
0.33333 1 1 nodecolor
218 299 79.89 18 ellipse_path fill
1 setlinewidth
filled
0 0 0 nodecolor
218 299 79.89 18 ellipse_path stroke
0 0 0 nodecolor
14 /Times-Roman set_font
164.5 295.3 moveto 107 (sensor-rocks-client) alignedtext
grestore
% order-p3->order-sensor-rocks-client
gsave
2 setlinewidth
bold
0.33333 1 1 edgecolor
newpath 83.2 344.94 moveto
98.71 339.56 119.57 332.34 138 326 curveto
144.75 323.68 151.84 321.25 158.87 318.84 curveto
stroke
0.33333 1 1 edgecolor
newpath 160.62 323.79 moveto
173.11 313.96 lineto
157.22 313.85 lineto
closepath fill
1 setlinewidth
solid
0.33333 1 1 edgecolor
newpath 160.62 323.79 moveto
173.11 313.96 lineto
157.22 313.85 lineto
closepath stroke
grestore
% order-battery-monitor
gsave
0.33333 1 1 nodecolor
218 353 66.89 18 ellipse_path fill
1 setlinewidth
filled
0 0 0 nodecolor
218 353 66.89 18 ellipse_path stroke
0 0 0 nodecolor
14 /Times-Roman set_font
174.5 349.3 moveto 87 (battery-monitor) alignedtext
grestore
% order-p3->order-battery-monitor
gsave
2 setlinewidth
bold
0.33333 1 1 edgecolor
newpath 86.28 353 moveto
100.12 353 117.93 353 135.92 353 curveto
stroke
0.33333 1 1 edgecolor
newpath 135.99 358.25 moveto
150.99 353 lineto
135.99 347.75 lineto
closepath fill
1 setlinewidth
solid
0.33333 1 1 edgecolor
newpath 135.99 358.25 moveto
150.99 353 lineto
135.99 347.75 lineto
closepath stroke
grestore
% order-dev-settings
gsave
0.33333 1 1 nodecolor
218 407 53.89 18 ellipse_path fill
1 setlinewidth
filled
0 0 0 nodecolor
218 407 53.89 18 ellipse_path stroke
0 0 0 nodecolor
14 /Times-Roman set_font
184.5 403.3 moveto 67 (dev-settings) alignedtext
grestore
% order-p3->order-dev-settings
gsave
2 setlinewidth
bold
0.33333 1 1 edgecolor
newpath 83.2 361.06 moveto
98.71 366.44 119.57 373.66 138 380 curveto
146.8 383.03 156.15 386.23 165.23 389.34 curveto
stroke
0.33333 1 1 edgecolor
newpath 163.72 394.37 moveto
179.62 394.26 lineto
167.12 384.44 lineto
closepath fill
1 setlinewidth
solid
0.33333 1 1 edgecolor
newpath 163.72 394.37 moveto
179.62 394.26 lineto
167.12 384.44 lineto
closepath stroke
grestore
% order-earthquake
gsave
0.8 0.59608 0.82745 nodecolor
218 461 50.09 18 ellipse_path fill
1 setlinewidth
filled
0 0 0 nodecolor
218 461 50.09 18 ellipse_path stroke
0 0 0 nodecolor
14 /Times-Roman set_font
187.5 457.3 moveto 61 (earthquake) alignedtext
grestore
% order-p3->order-earthquake
gsave
2 setlinewidth
bold
0.8 0.59608 0.82745 edgecolor
newpath 82.81 361.78 moveto
92.09 366.19 102.39 372.26 110 380 curveto
128.96 399.28 117.51 416.36 138 434 curveto
144.17 439.31 151.43 443.59 159.02 447.04 curveto
stroke
0.8 0.59608 0.82745 edgecolor
newpath 157.42 452.05 moveto
173.31 452.54 lineto
161.19 442.25 lineto
closepath fill
1 setlinewidth
solid
0.8 0.59608 0.82745 edgecolor
newpath 157.42 452.05 moveto
173.31 452.54 lineto
161.19 442.25 lineto
closepath stroke
grestore
% order-crespo
gsave
0.33333 1 1 nodecolor
59 299 36 18 ellipse_path fill
1 setlinewidth
filled
0 0 0 nodecolor
59 299 36 18 ellipse_path stroke
0 0 0 nodecolor
14 /Times-Roman set_font
39.5 295.3 moveto 39 (crespo) alignedtext
grestore
% order-crespo->order-wifi-settings
gsave
2 setlinewidth
bold
0.33333 1 1 edgecolor
newpath 88.88 288.97 moveto
103.58 283.88 121.74 277.59 138 272 curveto
146.8 268.97 156.15 265.77 165.23 262.66 curveto
stroke
0.33333 1 1 edgecolor
newpath 167.12 267.56 moveto
179.62 257.74 lineto
163.72 257.63 lineto
closepath fill
1 setlinewidth
solid
0.33333 1 1 edgecolor
newpath 167.12 267.56 moveto
179.62 257.74 lineto
163.72 257.63 lineto
closepath stroke
grestore
% order-crespo->order-sensor-rocks-client
gsave
2 setlinewidth
bold
0.33333 1 1 edgecolor
newpath 94.84 299 moveto
103.36 299 112.89 299 122.76 299 curveto
stroke
0.33333 1 1 edgecolor
newpath 122.92 304.25 moveto
137.92 299 lineto
122.92 293.75 lineto
closepath fill
1 setlinewidth
solid
0.33333 1 1 edgecolor
newpath 122.92 304.25 moveto
137.92 299 lineto
122.92 293.75 lineto
closepath stroke
grestore
% order-crespo->order-battery-monitor
gsave
2 setlinewidth
bold
0.33333 1 1 edgecolor
newpath 88.88 309.03 moveto
103.58 314.12 121.74 320.41 138 326 curveto
145.53 328.59 153.46 331.31 161.28 333.99 curveto
stroke
0.33333 1 1 edgecolor
newpath 159.69 338.99 moveto
175.58 338.88 lineto
163.09 329.06 lineto
closepath fill
1 setlinewidth
solid
0.33333 1 1 edgecolor
newpath 159.69 338.99 moveto
175.58 338.88 lineto
163.09 329.06 lineto
closepath stroke
grestore
% order-crespo->order-dev-settings
gsave
2 setlinewidth
bold
0.33333 1 1 edgecolor
newpath 87.43 310.08 moveto
95.39 314.22 103.64 319.53 110 326 curveto
128.96 345.28 117.51 362.36 138 380 curveto
143.68 384.89 150.29 388.91 157.23 392.21 curveto
stroke
0.33333 1 1 edgecolor
newpath 155.38 397.12 moveto
171.25 397.85 lineto
159.3 387.38 lineto
closepath fill
1 setlinewidth
solid
0.33333 1 1 edgecolor
newpath 155.38 397.12 moveto
171.25 397.85 lineto
159.3 387.38 lineto
closepath stroke
grestore
% order-crespo->order-earthquake
gsave
2 setlinewidth
bold
0.8 0.59608 0.82745 edgecolor
newpath 88.64 309.38 moveto
96.54 313.48 104.46 318.93 110 326 curveto
140.59 365.03 104.29 397.64 138 434 curveto
143.53 439.97 150.44 444.62 157.86 448.24 curveto
stroke
0.8 0.59608 0.82745 edgecolor
newpath 156.15 453.21 moveto
172.03 453.86 lineto
160.02 443.45 lineto
closepath fill
1 setlinewidth
solid
0.8 0.59608 0.82745 edgecolor
newpath 156.15 453.21 moveto
172.03 453.86 lineto
160.02 443.45 lineto
closepath stroke
grestore
% order-grouper
gsave
0.33333 1 1 nodecolor
59 407 38.99 18 ellipse_path fill
1 setlinewidth
filled
0 0 0 nodecolor
59 407 38.99 18 ellipse_path stroke
0 0 0 nodecolor
14 /Times-Roman set_font
37 403.3 moveto 44 (grouper) alignedtext
grestore
% order-grouper->order-wifi-settings
gsave
2 setlinewidth
bold
0.33333 1 1 edgecolor
newpath 89.94 395.93 moveto
97.41 391.92 104.77 386.68 110 380 curveto
140.59 340.97 104.29 308.36 138 272 curveto
142.97 266.64 149.06 262.34 155.62 258.89 curveto
stroke
0.33333 1 1 edgecolor
newpath 157.81 263.66 moveto
169.56 252.95 lineto
153.7 254 lineto
closepath fill
1 setlinewidth
solid
0.33333 1 1 edgecolor
newpath 157.81 263.66 moveto
169.56 252.95 lineto
153.7 254 lineto
closepath stroke
grestore
% order-grouper->order-sensor-rocks-client
gsave
2 setlinewidth
bold
0.33333 1 1 edgecolor
newpath 88.73 395.24 moveto
96.28 391.2 103.98 386.12 110 380 curveto
128.96 360.72 117.51 343.64 138 326 curveto
141.09 323.34 144.45 320.94 147.98 318.78 curveto
stroke
0.33333 1 1 edgecolor
newpath 150.43 323.42 moveto
161.39 311.91 lineto
145.64 314.08 lineto
closepath fill
1 setlinewidth
solid
0.33333 1 1 edgecolor
newpath 150.43 323.42 moveto
161.39 311.91 lineto
145.64 314.08 lineto
closepath stroke
grestore
% order-grouper->order-battery-monitor
gsave
2 setlinewidth
bold
0.33333 1 1 edgecolor
newpath 90.74 396.33 moveto
105.09 391.35 122.42 385.36 138 380 curveto
145.53 377.41 153.46 374.69 161.28 372.01 curveto
stroke
0.33333 1 1 edgecolor
newpath 163.09 376.94 moveto
175.58 367.12 lineto
159.69 367.01 lineto
closepath fill
1 setlinewidth
solid
0.33333 1 1 edgecolor
newpath 163.09 376.94 moveto
175.58 367.12 lineto
159.69 367.01 lineto
closepath stroke
grestore
% order-grouper->order-dev-settings
gsave
2 setlinewidth
bold
0.33333 1 1 edgecolor
newpath 98.01 407 moveto
113.31 407 131.44 407 148.87 407 curveto
stroke
0.33333 1 1 edgecolor
newpath 148.92 412.25 moveto
163.92 407 lineto
148.92 401.75 lineto
closepath fill
1 setlinewidth
solid
0.33333 1 1 edgecolor
newpath 148.92 412.25 moveto
163.92 407 lineto
148.92 401.75 lineto
closepath stroke
grestore
% order-grouper->order-earthquake
gsave
2 setlinewidth
bold
0.8 0.59608 0.82745 edgecolor
newpath 90.74 417.67 moveto
105.09 422.65 122.42 428.64 138 434 curveto
147.37 437.22 157.38 440.65 167.01 443.95 curveto
stroke
0.8 0.59608 0.82745 edgecolor
newpath 165.31 448.92 moveto
181.2 448.8 lineto
168.71 438.98 lineto
closepath fill
1 setlinewidth
solid
0.8 0.59608 0.82745 edgecolor
newpath 165.31 448.92 moveto
181.2 448.8 lineto
168.71 438.98 lineto
closepath stroke
grestore
% p3
gsave
0.33333 1 1 nodecolor
705 564 27 18 ellipse_path fill
1 setlinewidth
filled
0 0 0 nodecolor
705 564 27 18 ellipse_path stroke
0 0 0 nodecolor
14 /Times-Roman set_font
697.5 560.3 moveto 15 (p3) alignedtext
grestore
% wifi-settings
gsave
0.33333 1 1 nodecolor
550 780 53.89 18 ellipse_path fill
1 setlinewidth
filled
0 0 0 nodecolor
550 780 53.89 18 ellipse_path stroke
0 0 0 nodecolor
14 /Times-Roman set_font
516.5 776.3 moveto 67 (wifi-settings) alignedtext
grestore
% grouper
gsave
0.33333 1 1 nodecolor
705 672 38.99 18 ellipse_path fill
1 setlinewidth
filled
0 0 0 nodecolor
705 672 38.99 18 ellipse_path stroke
0 0 0 nodecolor
14 /Times-Roman set_font
683 668.3 moveto 44 (grouper) alignedtext
grestore
% sensor-rocks-client
gsave
0.33333 1 1 nodecolor
550 834 79.89 18 ellipse_path fill
1 setlinewidth
filled
0 0 0 nodecolor
550 834 79.89 18 ellipse_path stroke
0 0 0 nodecolor
14 /Times-Roman set_font
496.5 830.3 moveto 107 (sensor-rocks-client) alignedtext
grestore
% battery-monitor
gsave
0.33333 1 1 nodecolor
550 888 66.89 18 ellipse_path fill
1 setlinewidth
filled
0 0 0 nodecolor
550 888 66.89 18 ellipse_path stroke
0 0 0 nodecolor
14 /Times-Roman set_font
506.5 884.3 moveto 87 (battery-monitor) alignedtext
grestore
% base
gsave
0.33333 1 1 nodecolor
newpath 411 744 moveto
357 744 lineto
357 708 lineto
411 708 lineto
closepath fill
1 setlinewidth
filled
0 0 0 nodecolor
newpath 411 744 moveto
357 744 lineto
357 708 lineto
411 708 lineto
closepath stroke
0 0 0 nodecolor
14 /Times-Roman set_font
371 722.3 moveto 26 (base) alignedtext
grestore
% base_p3_hw=='p3'
gsave
0 0 0 nodecolor
14 /Times-Roman set_font
523 560.3 moveto 54 (hw=='p3') alignedtext
grestore
% base->base_p3_hw=='p3'
gsave
2 setlinewidth
bold
0.33333 1 1 edgecolor
newpath 411.25 716.07 moveto
419.48 711.87 427.97 706.24 434 699 curveto
466.38 660.12 434.36 626.91 470 591 curveto
481.85 579.06 499.2 572.39 514.62 568.68 curveto
stroke
0.33333 1 1 edgecolor
newpath 514.99 568.59 moveto
514.99 568.59 lineto
514.99 568.59 lineto
closepath fill
1 setlinewidth
solid
0.33333 1 1 edgecolor
newpath 514.99 568.59 moveto
514.99 568.59 lineto
514.99 568.59 lineto
closepath stroke
grestore
% base_crespo_hw=='crespo'
gsave
0 0 0 nodecolor
14 /Times-Roman set_font
511 614.3 moveto 78 (hw=='crespo') alignedtext
grestore
% base->base_crespo_hw=='crespo'
gsave
2 setlinewidth
bold
0.33333 1 1 edgecolor
newpath 411.21 714.53 moveto
419.06 710.35 427.35 705.11 434 699 curveto
455.24 679.48 447.14 662.6 470 645 curveto
479.46 637.72 491.01 632.33 502.32 628.37 curveto
stroke
0.33333 1 1 edgecolor
newpath 502.59 628.27 moveto
502.59 628.27 lineto
502.59 628.27 lineto
closepath fill
1 setlinewidth
solid
0.33333 1 1 edgecolor
newpath 502.59 628.27 moveto
502.59 628.27 lineto
502.59 628.27 lineto
closepath stroke
grestore
% base_grouper_hw=='grouper'
gsave
0 0 0 nodecolor
14 /Times-Roman set_font
508.5 668.3 moveto 83 (hw=='grouper') alignedtext
grestore
% base->base_grouper_hw=='grouper'
gsave
2 setlinewidth
bold
0.33333 1 1 edgecolor
newpath 411.35 717.32 moveto
435.16 709.48 470.82 697.74 499.88 688.17 curveto
stroke
0.33333 1 1 edgecolor
newpath 500.22 688.06 moveto
500.22 688.06 lineto
500.22 688.06 lineto
closepath fill
1 setlinewidth
solid
0.33333 1 1 edgecolor
newpath 500.22 688.06 moveto
500.22 688.06 lineto
500.22 688.06 lineto
closepath stroke
grestore
% dev-settings
gsave
0.33333 1 1 nodecolor
550 726 53.89 18 ellipse_path fill
1 setlinewidth
filled
0 0 0 nodecolor
550 726 53.89 18 ellipse_path stroke
0 0 0 nodecolor
14 /Times-Roman set_font
516.5 722.3 moveto 67 (dev-settings) alignedtext
grestore
% base->dev-settings
gsave
2 setlinewidth
bold
0.33333 1 1 edgecolor
newpath 411.35 726 moveto
430.08 726 456.15 726 480.57 726 curveto
stroke
0.33333 1 1 edgecolor
newpath 480.88 731.25 moveto
495.88 726 lineto
480.88 720.75 lineto
closepath fill
1 setlinewidth
solid
0.33333 1 1 edgecolor
newpath 480.88 731.25 moveto
495.88 726 lineto
480.88 720.75 lineto
closepath stroke
grestore
% base->wifi-settings
gsave
2 setlinewidth
bold
0.33333 1 1 edgecolor
newpath 411.35 734.68 moveto
434.33 742.24 468.34 753.44 496.81 762.82 curveto
stroke
0.33333 1 1 edgecolor
newpath 495.21 767.82 moveto
511.1 767.52 lineto
498.5 757.84 lineto
closepath fill
1 setlinewidth
solid
0.33333 1 1 edgecolor
newpath 495.21 767.82 moveto
511.1 767.52 lineto
498.5 757.84 lineto
closepath stroke
grestore
% base->sensor-rocks-client
gsave
2 setlinewidth
bold
0.33333 1 1 edgecolor
newpath 399.84 744.15 moveto
415.56 762.33 441.94 789.98 470 807 curveto
474.41 809.67 479.12 812.13 483.96 814.37 curveto
stroke
0.33333 1 1 edgecolor
newpath 481.94 819.22 moveto
497.81 820.13 lineto
485.98 809.52 lineto
closepath fill
1 setlinewidth
solid
0.33333 1 1 edgecolor
newpath 481.94 819.22 moveto
497.81 820.13 lineto
485.98 809.52 lineto
closepath stroke
grestore
% base->battery-monitor
gsave
2 setlinewidth
bold
0.33333 1 1 edgecolor
newpath 391.71 744.06 moveto
403.32 772.87 429.81 829.22 470 861 curveto
474.41 864.49 479.3 867.54 484.41 870.2 curveto
stroke
0.33333 1 1 edgecolor
newpath 482.49 875.09 moveto
498.33 876.4 lineto
486.76 865.5 lineto
closepath fill
1 setlinewidth
solid
0.33333 1 1 edgecolor
newpath 482.49 875.09 moveto
498.33 876.4 lineto
486.76 865.5 lineto
closepath stroke
grestore
% earth-sensor
gsave
0.8 0.59608 0.82745 nodecolor
newpath 260.5 717 moveto
175.5 717 lineto
175.5 681 lineto
260.5 681 lineto
closepath fill
1 setlinewidth
filled
0 0 0 nodecolor
newpath 260.5 717 moveto
175.5 717 lineto
175.5 681 lineto
260.5 681 lineto
closepath stroke
0 0 0 nodecolor
14 /Times-Roman set_font
183.5 695.3 moveto 69 (earth-sensor) alignedtext
grestore
% earthquake
gsave
0.8 0.59608 0.82745 nodecolor
384 672 50.09 18 ellipse_path fill
1 setlinewidth
filled
0 0 0 nodecolor
384 672 50.09 18 ellipse_path stroke
0 0 0 nodecolor
14 /Times-Roman set_font
353.5 668.3 moveto 61 (earthquake) alignedtext
grestore
% earth-sensor->earthquake
gsave
2 setlinewidth
bold
0.8 0.59608 0.82745 edgecolor
newpath 260.81 692.12 moveto
279.73 689 302.45 685.26 323.13 681.86 curveto
stroke
0.8 0.59608 0.82745 edgecolor
newpath 324.16 687.01 moveto
338.1 679.39 lineto
322.45 676.65 lineto
closepath fill
1 setlinewidth
solid
0.8 0.59608 0.82745 edgecolor
newpath 324.16 687.01 moveto
338.1 679.39 lineto
322.45 676.65 lineto
closepath stroke
grestore
% earth-sensor->base
gsave
2 setlinewidth
bold
0.8 0.59608 0.82745 edgecolor
newpath 260.81 705.88 moveto
285.56 709.96 316.81 715.1 341.51 719.17 curveto
stroke
0.8 0.59608 0.82745 edgecolor
newpath 341.01 724.41 moveto
356.66 721.66 lineto
342.72 714.05 lineto
closepath fill
1 setlinewidth
solid
0.8 0.59608 0.82745 edgecolor
newpath 341.01 724.41 moveto
356.66 721.66 lineto
342.72 714.05 lineto
closepath stroke
grestore
% root
gsave
0.83137 0.27451 0.86667 nodecolor
newpath 86 717 moveto
32 717 lineto
32 681 lineto
86 681 lineto
closepath fill
1 setlinewidth
filled
0 0 0 nodecolor
newpath 86 717 moveto
32 717 lineto
32 681 lineto
86 681 lineto
closepath stroke
0 0 0 nodecolor
14 /Times-Roman set_font
47 695.3 moveto 24 (root) alignedtext
grestore
% root->earth-sensor
gsave
2 setlinewidth
bold
0.83137 0.27451 0.86667 edgecolor
newpath 86.28 699 moveto
106.37 699 134.83 699 160.06 699 curveto
stroke
0.83137 0.27451 0.86667 edgecolor
newpath 160.25 704.25 moveto
175.25 699 lineto
160.25 693.75 lineto
closepath fill
1 setlinewidth
solid
0.83137 0.27451 0.86667 edgecolor
newpath 160.25 704.25 moveto
175.25 699 lineto
160.25 693.75 lineto
closepath stroke
grestore
% crespo
gsave
0.33333 1 1 nodecolor
705 618 36 18 ellipse_path fill
1 setlinewidth
filled
0 0 0 nodecolor
705 618 36 18 ellipse_path stroke
0 0 0 nodecolor
14 /Times-Roman set_font
685.5 614.3 moveto 39 (crespo) alignedtext
grestore
% base_p3_hw=='p3'->p3
gsave
2 setlinewidth
bold
0.33333 1 1 edgecolor
newpath 585.34 564 moveto
608.21 564 638.4 564 662.6 564 curveto
stroke
0.33333 1 1 edgecolor
newpath 662.87 569.25 moveto
677.87 564 lineto
662.87 558.75 lineto
closepath fill
1 setlinewidth
solid
0.33333 1 1 edgecolor
newpath 662.87 569.25 moveto
677.87 564 lineto
662.87 558.75 lineto
closepath stroke
grestore
% base_crespo_hw=='crespo'->crespo
gsave
2 setlinewidth
bold
0.33333 1 1 edgecolor
newpath 597.32 618 moveto
615.14 618 635.57 618 653.74 618 curveto
stroke
0.33333 1 1 edgecolor
newpath 654.02 623.25 moveto
669.02 618 lineto
654.02 612.75 lineto
closepath fill
1 setlinewidth
solid
0.33333 1 1 edgecolor
newpath 654.02 623.25 moveto
669.02 618 lineto
654.02 612.75 lineto
closepath stroke
grestore
% base_grouper_hw=='grouper'->grouper
gsave
2 setlinewidth
bold
0.33333 1 1 edgecolor
newpath 599.83 672 moveto
616 672 634.08 672 650.58 672 curveto
stroke
0.33333 1 1 edgecolor
newpath 650.8 677.25 moveto
665.8 672 lineto
650.8 666.75 lineto
closepath fill
1 setlinewidth
solid
0.33333 1 1 edgecolor
newpath 650.8 677.25 moveto
665.8 672 lineto
650.8 666.75 lineto
closepath stroke
grestore
endpage
showpage
grestore
%%PageTrailer
%%EndPage: 1
%%Trailer
%%Pages: 1
%%BoundingBox: 36 36 804 1009
end
restore
%%EOF
